Library/Bee/artifacts/mvdfrm/Unity.EditorCoroutines.Editor.ref.dll_728C78151872B5E7.mvfrm
Library/Bee/artifacts/mvdfrm/Unity.Performance.Profile-Analyzer.Editor.ref.dll_C3EE3B81D8CE5737.mvfrm
Library/Bee/artifacts/mvdfrm/Unity.PlasticSCM.Editor.ref.dll_CBF917C274624EE2.mvfrm
Library/Bee/artifacts/mvdfrm/Unity.Rider.Editor.ref.dll_A276D0F1D4D046E3.mvfrm
Library/Bee/artifacts/mvdfrm/Unity.TestTools.CodeCoverage.Editor.OpenCover.Model.ref.dll_D99F3560B5399C1F.mvfrm
Library/Bee/artifacts/mvdfrm/Unity.TestTools.CodeCoverage.Editor.OpenCover.Mono.Reflection.ref.dll_D28CA8BFC1EBBB4C.mvfrm
Library/Bee/artifacts/mvdfrm/Unity.TestTools.CodeCoverage.Editor.ref.dll_2607E0EF38FFFC65.mvfrm
Library/Bee/artifacts/mvdfrm/Unity.TextMeshPro.Editor.ref.dll_C5B7873C632B963A.mvfrm
Library/Bee/artifacts/mvdfrm/Unity.TextMeshPro.ref.dll_EA61D4CF7C90DCE7.mvfrm
Library/Bee/artifacts/mvdfrm/Unity.Timeline.Editor.ref.dll_1305DD42619CF31E.mvfrm
Library/Bee/artifacts/mvdfrm/Unity.Timeline.ref.dll_D292A1F7EB1601C3.mvfrm
Library/Bee/artifacts/mvdfrm/Unity.VSCode.Editor.ref.dll_58A7DE8130CE9FA5.mvfrm
Library/Bee/artifacts/mvdfrm/Unity.VisualScripting.Core.Editor.ref.dll_FE8D1F6CE20A2409.mvfrm
Library/Bee/artifacts/mvdfrm/Unity.VisualScripting.Core.ref.dll_4EC1FE8B3807FE28.mvfrm
Library/Bee/artifacts/mvdfrm/Unity.VisualScripting.Flow.Editor.ref.dll_7BBE081BF0E8AF4A.mvfrm
Library/Bee/artifacts/mvdfrm/Unity.VisualScripting.Flow.ref.dll_95D2DEE1BA1172D7.mvfrm
Library/Bee/artifacts/mvdfrm/Unity.VisualScripting.SettingsProvider.Editor.ref.dll_AD2FFB7646FD92B4.mvfrm
Library/Bee/artifacts/mvdfrm/Unity.VisualScripting.Shared.Editor.ref.dll_CBD4E358CB8CDF43.mvfrm
Library/Bee/artifacts/mvdfrm/Unity.VisualScripting.State.Editor.ref.dll_BC6ADFF987BC82A3.mvfrm
Library/Bee/artifacts/mvdfrm/Unity.VisualScripting.State.ref.dll_697AC546F729FDEE.mvfrm
Library/Bee/artifacts/mvdfrm/Unity.VisualStudio.Editor.ref.dll_F37C0F1BA2EC04B9.mvfrm
Library/Bee/artifacts/mvdfrm/UnityEditor.UI.ref.dll_BD0E97F52A0DF729.mvfrm
Library/Bee/artifacts/mvdfrm/UnityEngine.UI.ref.dll_79746E5030301F94.mvfrm
Library/Bee/artifacts/mvdfrm/Unity.Android.Gradle.dll_CD798DD9A322DE01.mvfrm
Library/Bee/artifacts/mvdfrm/Unity.Android.Types.dll_21A908AE274B51CB.mvfrm
Library/Bee/artifacts/mvdfrm/UnityEditor.iOS.Extensions.Common.dll_42B019B461CC5F3E.mvfrm
Library/Bee/artifacts/mvdfrm/UnityEditor.iOS.Extensions.Xcode.dll_4F3823FD711C48EE.mvfrm
Library/Bee/artifacts/mvdfrm/UnityEditor.CoreModule.dll_11AB5EB6E1F86E0F.mvfrm
Library/Bee/artifacts/mvdfrm/UnityEditor.DeviceSimulatorModule.dll_FC9328476B9605E2.mvfrm
Library/Bee/artifacts/mvdfrm/UnityEditor.DiagnosticsModule.dll_1E502094F6C6EFB0.mvfrm
Library/Bee/artifacts/mvdfrm/UnityEditor.dll_3C757B656B8C3E56.mvfrm
Library/Bee/artifacts/mvdfrm/UnityEditor.GraphViewModule.dll_60ECC52267B0FD87.mvfrm
Library/Bee/artifacts/mvdfrm/UnityEditor.PackageManagerUIModule.dll_BA039CE647310EAB.mvfrm
Library/Bee/artifacts/mvdfrm/UnityEditor.QuickSearchModule.dll_A95FA1A24F9DEC09.mvfrm
Library/Bee/artifacts/mvdfrm/UnityEditor.SceneTemplateModule.dll_DF6204ACCF49F5AA.mvfrm
Library/Bee/artifacts/mvdfrm/UnityEditor.TextCoreFontEngineModule.dll_518662C5721102AD.mvfrm
Library/Bee/artifacts/mvdfrm/UnityEditor.TextCoreTextEngineModule.dll_996E99370194BBCB.mvfrm
Library/Bee/artifacts/mvdfrm/UnityEditor.UIBuilderModule.dll_B575723EDA6976BB.mvfrm
Library/Bee/artifacts/mvdfrm/UnityEditor.UIElementsModule.dll_3502194AEA2D28EB.mvfrm
Library/Bee/artifacts/mvdfrm/UnityEditor.UIElementsSamplesModule.dll_7EEAFE41F8A29032.mvfrm
Library/Bee/artifacts/mvdfrm/UnityEditor.UIServiceModule.dll_EE6783A1C3A0C6D5.mvfrm
Library/Bee/artifacts/mvdfrm/UnityEditor.UnityConnectModule.dll_D24B0C1942FD2445.mvfrm
Library/Bee/artifacts/mvdfrm/UnityEngine.AccessibilityModule.dll_12077043CFC01D47.mvfrm
Library/Bee/artifacts/mvdfrm/UnityEngine.AIModule.dll_F59C71D7F3F09083.mvfrm
Library/Bee/artifacts/mvdfrm/UnityEngine.AndroidJNIModule.dll_B34B021E334C97C1.mvfrm
Library/Bee/artifacts/mvdfrm/UnityEngine.AnimationModule.dll_2F72414B420DD22D.mvfrm
Library/Bee/artifacts/mvdfrm/UnityEngine.ARModule.dll_AF0F36DB510DEF4C.mvfrm
Library/Bee/artifacts/mvdfrm/UnityEngine.AssetBundleModule.dll_ED48D493B204A0FB.mvfrm
Library/Bee/artifacts/mvdfrm/UnityEngine.AudioModule.dll_C8D27F3036B75FDF.mvfrm
Library/Bee/artifacts/mvdfrm/UnityEngine.ClothModule.dll_2FBADC2B10D43EC3.mvfrm
Library/Bee/artifacts/mvdfrm/UnityEngine.ClusterInputModule.dll_51E7812EF484F70B.mvfrm
Library/Bee/artifacts/mvdfrm/UnityEngine.ClusterRendererModule.dll_023FEAB8DB511366.mvfrm
Library/Bee/artifacts/mvdfrm/UnityEngine.CoreModule.dll_34CC320989FDD93A.mvfrm
Library/Bee/artifacts/mvdfrm/UnityEngine.CrashReportingModule.dll_322A78CBB18B7512.mvfrm
Library/Bee/artifacts/mvdfrm/UnityEngine.DirectorModule.dll_F399DCB2CD3BA5D7.mvfrm
Library/Bee/artifacts/mvdfrm/UnityEngine.dll_6F19C23DC9FFCB3B.mvfrm
Library/Bee/artifacts/mvdfrm/UnityEngine.DSPGraphModule.dll_F8EB3E1C3F9C76F8.mvfrm
Library/Bee/artifacts/mvdfrm/UnityEngine.GameCenterModule.dll_DD984C38F98D88B2.mvfrm
Library/Bee/artifacts/mvdfrm/UnityEngine.GIModule.dll_8DD8BAE58F9F789D.mvfrm
Library/Bee/artifacts/mvdfrm/UnityEngine.GridModule.dll_123D4DF7A2526F31.mvfrm
Library/Bee/artifacts/mvdfrm/UnityEngine.HotReloadModule.dll_B0BAFF511D40EDAF.mvfrm
Library/Bee/artifacts/mvdfrm/UnityEngine.ImageConversionModule.dll_6E31E8695D75CB5A.mvfrm
Library/Bee/artifacts/mvdfrm/UnityEngine.IMGUIModule.dll_01321E96FCE8F3C0.mvfrm
Library/Bee/artifacts/mvdfrm/UnityEngine.InputLegacyModule.dll_7E8DEFB249F656EC.mvfrm
Library/Bee/artifacts/mvdfrm/UnityEngine.InputModule.dll_2F4846E0ACEF8483.mvfrm
Library/Bee/artifacts/mvdfrm/UnityEngine.JSONSerializeModule.dll_721EF97FCEFB7DD1.mvfrm
Library/Bee/artifacts/mvdfrm/UnityEngine.LocalizationModule.dll_90344B818C00EA04.mvfrm
Library/Bee/artifacts/mvdfrm/UnityEngine.ParticleSystemModule.dll_853CC2181F9D00A0.mvfrm
Library/Bee/artifacts/mvdfrm/UnityEngine.PerformanceReportingModule.dll_0C2CABC4F4A927F9.mvfrm
Library/Bee/artifacts/mvdfrm/UnityEngine.Physics2DModule.dll_7C18313BE30AC9C2.mvfrm
Library/Bee/artifacts/mvdfrm/UnityEngine.PhysicsModule.dll_BF406E9F47824C90.mvfrm
Library/Bee/artifacts/mvdfrm/UnityEngine.ProfilerModule.dll_25E015E966952CE4.mvfrm
Library/Bee/artifacts/mvdfrm/UnityEngine.RuntimeInitializeOnLoadManagerInitializerModule.dll_FDAC82FDABCEBE8B.mvfrm
Library/Bee/artifacts/mvdfrm/UnityEngine.ScreenCaptureModule.dll_8C06A704E367AA33.mvfrm
Library/Bee/artifacts/mvdfrm/UnityEngine.SharedInternalsModule.dll_F243273ED4A3C6AA.mvfrm
Library/Bee/artifacts/mvdfrm/UnityEngine.SpriteMaskModule.dll_C6C4BEC91AFD1E2C.mvfrm
Library/Bee/artifacts/mvdfrm/UnityEngine.SpriteShapeModule.dll_06AA01EE67A6D905.mvfrm
Library/Bee/artifacts/mvdfrm/UnityEngine.StreamingModule.dll_E4072E9B9195896B.mvfrm
Library/Bee/artifacts/mvdfrm/UnityEngine.SubstanceModule.dll_C0B242E4DCE88779.mvfrm
Library/Bee/artifacts/mvdfrm/UnityEngine.SubsystemsModule.dll_3172252AE945063F.mvfrm
Library/Bee/artifacts/mvdfrm/UnityEngine.TerrainModule.dll_D986EA0E1D40957E.mvfrm
Library/Bee/artifacts/mvdfrm/UnityEngine.TerrainPhysicsModule.dll_85B76AEB38DFFB2D.mvfrm
Library/Bee/artifacts/mvdfrm/UnityEngine.TextCoreFontEngineModule.dll_CFE5DE18850EC178.mvfrm
Library/Bee/artifacts/mvdfrm/UnityEngine.TextCoreTextEngineModule.dll_17CE148A14927A96.mvfrm
Library/Bee/artifacts/mvdfrm/UnityEngine.TextRenderingModule.dll_B546190F9A9F2A28.mvfrm
Library/Bee/artifacts/mvdfrm/UnityEngine.TilemapModule.dll_7883518F34FD7687.mvfrm
Library/Bee/artifacts/mvdfrm/UnityEngine.TLSModule.dll_94B1029D327EF964.mvfrm
Library/Bee/artifacts/mvdfrm/UnityEngine.UIElementsModule.dll_35B08692EC714236.mvfrm
Library/Bee/artifacts/mvdfrm/UnityEngine.UIElementsNativeModule.dll_047D517BB8A97ECD.mvfrm
Library/Bee/artifacts/mvdfrm/UnityEngine.UIModule.dll_F11010055037962F.mvfrm
Library/Bee/artifacts/mvdfrm/UnityEngine.UmbraModule.dll_43A72B48C3DE0B52.mvfrm
Library/Bee/artifacts/mvdfrm/UnityEngine.UNETModule.dll_C77279F2D70CCEB3.mvfrm
Library/Bee/artifacts/mvdfrm/UnityEngine.UnityAnalyticsModule.dll_A4DC32E1CBC4529C.mvfrm
Library/Bee/artifacts/mvdfrm/UnityEngine.UnityConnectModule.dll_BFAA90283D8524F0.mvfrm
Library/Bee/artifacts/mvdfrm/UnityEngine.UnityCurlModule.dll_628EE27CB221C41A.mvfrm
Library/Bee/artifacts/mvdfrm/UnityEngine.UnityTestProtocolModule.dll_3AADB434529DE588.mvfrm
Library/Bee/artifacts/mvdfrm/UnityEngine.UnityWebRequestAssetBundleModule.dll_3068DD55B8190A6D.mvfrm
Library/Bee/artifacts/mvdfrm/UnityEngine.UnityWebRequestAudioModule.dll_8428FFA37B13F291.mvfrm
Library/Bee/artifacts/mvdfrm/UnityEngine.UnityWebRequestModule.dll_7FD0F013686A65D9.mvfrm
Library/Bee/artifacts/mvdfrm/UnityEngine.UnityWebRequestTextureModule.dll_520F84F12916F486.mvfrm
Library/Bee/artifacts/mvdfrm/UnityEngine.UnityWebRequestWWWModule.dll_E29059E604523702.mvfrm
Library/Bee/artifacts/mvdfrm/UnityEngine.VehiclesModule.dll_6B5CD63247657572.mvfrm
Library/Bee/artifacts/mvdfrm/UnityEngine.VFXModule.dll_158F9B0C08EC62D1.mvfrm
Library/Bee/artifacts/mvdfrm/UnityEngine.VideoModule.dll_EDDC039AF9497B84.mvfrm
Library/Bee/artifacts/mvdfrm/UnityEngine.VirtualTexturingModule.dll_290A05EA9157FF58.mvfrm
Library/Bee/artifacts/mvdfrm/UnityEngine.VRModule.dll_43E2368AF1F21BA7.mvfrm
Library/Bee/artifacts/mvdfrm/UnityEngine.WindModule.dll_AB1B0D321B3457A3.mvfrm
Library/Bee/artifacts/mvdfrm/UnityEngine.XRModule.dll_76A0F98F7B2C6905.mvfrm
Library/Bee/artifacts/mvdfrm/Unity.VisualScripting.Antlr3.Runtime.dll_173979942F918731.mvfrm