Library/Bee/artifacts/mvdfrm/Unity.Profiling.Core.ref.dll_B7D44B7864BB1620.mvfrm
Library/Bee/artifacts/mvdfrm/Unity.Subsystem.Registration.ref.dll_8EAF00E372D45241.mvfrm
Library/Bee/artifacts/mvdfrm/Unity.VisualScripting.Core.ref.dll_0FD4FE2CDCC99BDF.mvfrm
Library/Bee/artifacts/mvdfrm/Unity.VisualScripting.Flow.ref.dll_56E5DE835ED3108E.mvfrm
Library/Bee/artifacts/mvdfrm/UnityEngine.UI.ref.dll_AFC2E85BC2EDBC0B.mvfrm
Library/Bee/artifacts/mvdfrm/UnityEngine.AccessibilityModule.dll_9C5DC1D641D69A61.mvfrm
Library/Bee/artifacts/mvdfrm/UnityEngine.AIModule.dll_9B623F7D696DC849.mvfrm
Library/Bee/artifacts/mvdfrm/UnityEngine.AndroidJNIModule.dll_9C30DDC5B30FB287.mvfrm
Library/Bee/artifacts/mvdfrm/UnityEngine.AnimationModule.dll_B1B8191F580078C7.mvfrm
Library/Bee/artifacts/mvdfrm/UnityEngine.ARModule.dll_54D50480C68B2712.mvfrm
Library/Bee/artifacts/mvdfrm/UnityEngine.AssetBundleModule.dll_35919F5EADFB7ED5.mvfrm
Library/Bee/artifacts/mvdfrm/UnityEngine.AudioModule.dll_57B2C162C51FCFF9.mvfrm
Library/Bee/artifacts/mvdfrm/UnityEngine.ClothModule.dll_BE9B1E5D9F3CAEDD.mvfrm
Library/Bee/artifacts/mvdfrm/UnityEngine.CoreModule.dll_7C5EF0BE9ACC65C0.mvfrm
Library/Bee/artifacts/mvdfrm/UnityEngine.CrashReportingModule.dll_4A5DB2C686201158.mvfrm
Library/Bee/artifacts/mvdfrm/UnityEngine.DirectorModule.dll_8263E372AFCA23DD.mvfrm
Library/Bee/artifacts/mvdfrm/UnityEngine.dll_EDCA0F0DE55357D5.mvfrm
Library/Bee/artifacts/mvdfrm/UnityEngine.DSPGraphModule.dll_87B544DC222AF4FE.mvfrm
Library/Bee/artifacts/mvdfrm/UnityEngine.GameCenterModule.dll_C67E27E07950A378.mvfrm
Library/Bee/artifacts/mvdfrm/UnityEngine.GIModule.dll_339E888B051CB063.mvfrm
Library/Bee/artifacts/mvdfrm/UnityEngine.GridModule.dll_59D00CACB320FBB7.mvfrm
Library/Bee/artifacts/mvdfrm/UnityEngine.HotReloadModule.dll_3300D72533339449.mvfrm
Library/Bee/artifacts/mvdfrm/UnityEngine.ImageConversionModule.dll_52D0B51D10C44FB4.mvfrm
Library/Bee/artifacts/mvdfrm/UnityEngine.IMGUIModule.dll_901260C98B5163DA.mvfrm
Library/Bee/artifacts/mvdfrm/UnityEngine.InputLegacyModule.dll_C6D6BA7D45ED34C6.mvfrm
Library/Bee/artifacts/mvdfrm/UnityEngine.InputModule.dll_BE2889133B57F49D.mvfrm
Library/Bee/artifacts/mvdfrm/UnityEngine.JSONSerializeModule.dll_FC754B124111FAEB.mvfrm
Library/Bee/artifacts/mvdfrm/UnityEngine.LocalizationModule.dll_555D27D8C8FFB98A.mvfrm
Library/Bee/artifacts/mvdfrm/UnityEngine.ParticleSystemModule.dll_9D6FFC12F4319CE6.mvfrm
Library/Bee/artifacts/mvdfrm/UnityEngine.PerformanceReportingModule.dll_C5E47ADCEAF9BA7F.mvfrm
Library/Bee/artifacts/mvdfrm/UnityEngine.Physics2DModule.dll_FE5E090FF8FD705C.mvfrm
Library/Bee/artifacts/mvdfrm/UnityEngine.PhysicsModule.dll_2D81C97ECA2F23EA.mvfrm
Library/Bee/artifacts/mvdfrm/UnityEngine.ProfilerModule.dll_B4AA1CA94923AAEA.mvfrm
Library/Bee/artifacts/mvdfrm/UnityEngine.RuntimeInitializeOnLoadManagerInitializerModule.dll_96BFA659C5CD9925.mvfrm
Library/Bee/artifacts/mvdfrm/UnityEngine.ScreenCaptureModule.dll_165CF897557E274D.mvfrm
Library/Bee/artifacts/mvdfrm/UnityEngine.SharedInternalsModule.dll_D6E1F3F287F24B04.mvfrm
Library/Bee/artifacts/mvdfrm/UnityEngine.SpriteMaskModule.dll_AFAA9A709AC038F2.mvfrm
Library/Bee/artifacts/mvdfrm/UnityEngine.SpriteShapeModule.dll_4EF2CCB9639DB6DF.mvfrm
Library/Bee/artifacts/mvdfrm/UnityEngine.StreamingModule.dll_664D066FA7883005.mvfrm
Library/Bee/artifacts/mvdfrm/UnityEngine.SubstanceModule.dll_42F81AB8F2DB2E13.mvfrm
Library/Bee/artifacts/mvdfrm/UnityEngine.SubsystemsModule.dll_1A5800D269082105.mvfrm
Library/Bee/artifacts/mvdfrm/UnityEngine.TerrainModule.dll_47C844ED9FED6CD8.mvfrm
Library/Bee/artifacts/mvdfrm/UnityEngine.TerrainPhysicsModule.dll_9DEAA4E60D749773.mvfrm
Library/Bee/artifacts/mvdfrm/UnityEngine.TextCoreFontEngineModule.dll_D3047AD307093F3E.mvfrm
Library/Bee/artifacts/mvdfrm/UnityEngine.TextCoreTextEngineModule.dll_1AECB144968CF85C.mvfrm
Library/Bee/artifacts/mvdfrm/UnityEngine.TextRenderingModule.dll_3F9C6AA20CB5A742.mvfrm
Library/Bee/artifacts/mvdfrm/UnityEngine.TilemapModule.dll_E6C4AC6EB7AA4DE1.mvfrm
Library/Bee/artifacts/mvdfrm/UnityEngine.TLSModule.dll_B76464824D876A3E.mvfrm
Library/Bee/artifacts/mvdfrm/UnityEngine.UIElementsModule.dll_1E96623A6C345CFC.mvfrm
Library/Bee/artifacts/mvdfrm/UnityEngine.UIElementsNativeModule.dll_5A46F9F791E0FFD3.mvfrm
Library/Bee/artifacts/mvdfrm/UnityEngine.UIModule.dll_96D5DDAAC5B4CDF5.mvfrm
Library/Bee/artifacts/mvdfrm/UnityEngine.UmbraModule.dll_D2876D7B52467B6C.mvfrm
Library/Bee/artifacts/mvdfrm/UnityEngine.UNETModule.dll_0F0538A7E7DB5B39.mvfrm
Library/Bee/artifacts/mvdfrm/UnityEngine.UnityAnalyticsModule.dll_BD0F6CDCA058EEE2.mvfrm
Library/Bee/artifacts/mvdfrm/UnityEngine.UnityConnectModule.dll_84D36C7F7A83F476.mvfrm
Library/Bee/artifacts/mvdfrm/UnityEngine.UnityCurlModule.dll_E4D4BA50C8146AB4.mvfrm
Library/Bee/artifacts/mvdfrm/UnityEngine.UnityTestProtocolModule.dll_05AB40853ED9D922.mvfrm
Library/Bee/artifacts/mvdfrm/UnityEngine.UnityWebRequestAssetBundleModule.dll_EA1CAF9AACFC6B33.mvfrm
Library/Bee/artifacts/mvdfrm/UnityEngine.UnityWebRequestAudioModule.dll_3DE0CEBB71648517.mvfrm
Library/Bee/artifacts/mvdfrm/UnityEngine.UnityWebRequestModule.dll_646FBCC71BB8EA33.mvfrm
Library/Bee/artifacts/mvdfrm/UnityEngine.UnityWebRequestTextureModule.dll_643C68734323B3CC.mvfrm
Library/Bee/artifacts/mvdfrm/UnityEngine.UnityWebRequestWWWModule.dll_E5AEF6A0864CB4C8.mvfrm
Library/Bee/artifacts/mvdfrm/UnityEngine.VehiclesModule.dll_FA26DCF229F3F378.mvfrm
Library/Bee/artifacts/mvdfrm/UnityEngine.VFXModule.dll_3842FCF123F4D3AB.mvfrm
Library/Bee/artifacts/mvdfrm/UnityEngine.VideoModule.dll_7CBC45CD87B1EB9E.mvfrm
Library/Bee/artifacts/mvdfrm/UnityEngine.VRModule.dll_E9A80430676F536D.mvfrm
Library/Bee/artifacts/mvdfrm/UnityEngine.WindModule.dll_F2ADCBE72C02E429.mvfrm
Library/Bee/artifacts/mvdfrm/UnityEngine.XRModule.dll_1C66C734F0A9A0CB.mvfrm
Library/Bee/artifacts/mvdfrm/Unity.Burst.Cecil.dll_E8D738C7BB39874A.mvfrm
Library/Bee/artifacts/mvdfrm/Unity.Burst.Cecil.Mdb.dll_66AF7E867DA74D07.mvfrm
Library/Bee/artifacts/mvdfrm/Unity.Burst.Cecil.Pdb.dll_7E01F6F5FC5C4E8A.mvfrm
Library/Bee/artifacts/mvdfrm/Unity.Burst.Cecil.Rocks.dll_A65634DA3C7463EA.mvfrm
Library/Bee/artifacts/mvdfrm/Unity.Burst.Unsafe.dll_71EE112A3403CE29.mvfrm
Library/Bee/artifacts/mvdfrm/Unity.VisualScripting.Antlr3.Runtime.dll_173979942F918731.mvfrm